0 4740 543903 554536 4174015 4183400
0 0 553334.88 4175239.72 UP
5 0 553351.49 4175229.11 UP
10 0 553368.10 4175218.50 UP
15 0 553384.71 4175207.88 UP
20 0 553401.32 4175197.27 UP
25 0 553417.93 4175186.66 UP
30 0 553434.53 4175176.04 UP
35 0 553451.14 4175165.43 UP
40 0 553467.75 4175154.81 UP
45 0 553483.84 4175144.12 UP
50 0 553499.13 4175133.31 UP
55 0 553514.43 4175122.50 UP
60 0 553529.73 4175111.69 UP
65 0 553545.03 4175100.88 UP
70 0 553560.32 4175090.07 UP
75 0 553575.62 4175079.25 UP
80 0 553590.92 4175068.44 UP
85 0 553606.22 4175057.63 UP
90 0 553621.52 4175046.82 UP
95 0 553636.81 4175036.01 UP
100 0 553652.06 4175025.30 UP
105 0 553667.26 4175014.67 UP
110 0 553682.47 4175004.03 UP
115 0 553697.68 4174993.39 UP
120 0 553712.89 4174982.76 UP
125 0 553728.09 4174972.12 UP
130 0 553743.30 4174961.48 UP
135 0 553758.51 4174950.85 UP
140 0 553773.71 4174940.21 UP
145 0 553788.92 4174929.57 UP
150 0 553804.13 4174918.94 UP
155 0 553762.47 4174843.21 UP
160 0 553773.40 4174835.58 UP
165 0 553784.34 4174827.96 UP
170 0 553795.27 4174820.34 UP
175 0 553806.20 4174812.72 UP
180 0 553817.14 4174805.10 UP
185 0 553828.07 4174797.47 UP
190 0 553839.00 4174789.85 UP
195 0 553849.94 4174782.23 UP
200 0 553860.87 4174774.61 UP
205 0 553871.80 4174766.98 UP
210 0 553882.74 4174759.36 UP
215 0 553893.67 4174751.74 UP
220 0 553904.61 4174744.12 UP
225 0 553915.54 4174736.49 UP
230 0 553927.38 4174728.22 UP
235 0 553942.87 4174717.35 UP
240 0 553958.35 4174706.47 UP
245 0 553973.83 4174695.60 UP
250 0 553989.32 4174684.72 UP
255 0 554004.80 4174673.85 UP
260 0 554020.28 4174662.98 UP
265 0 554035.76 4174652.10 UP
270 0 553944.89 4174518.43 UP
275 0 553942.71 4174517.98 UP
280 0 553940.53 4174517.52 UP
285 0 553938.35 4174517.07 UP
290 0 553936.17 4174516.61 UP
295 0 553933.99 4174516.16 UP
300 0 553931.81 4174515.70 UP
305 0 553929.63 4174515.24 UP
310 0 553927.45 4174514.79 UP
315 0 553873.07 4174552.87 UP
320 0 553829.08 4174584.44 UP
325 0 553815.21 4174594.55 UP
330 0 553801.34 4174604.66 UP
335 0 553787.47 4174614.76 UP
340 0 553773.60 4174624.87 UP
345 0 553759.73 4174634.98 UP
350 0 553745.86 4174645.09 UP
355 0 553736.69 4174651.64 UP
360 0 553728.70 4174657.31 UP
365 0 553720.70 4174662.97 UP
370 0 553712.71 4174668.64 UP
375 0 553704.71 4174674.31 UP
380 0 553696.72 4174679.97 UP
385 0 553688.72 4174685.64 UP
390 0 553680.73 4174691.31 UP
395 0 553672.74 4174696.97 UP
400 0 553664.74 4174702.64 UP
405 0 553710.06 4174778.59 UP
410 0 553715.40 4174786.11 UP
415 0 553720.74 4174793.63 UP
420 0 553726.07 4174801.15 UP
425 0 553731.41 4174808.67 UP
430 0 553736.75 4174816.18 UP
435 0 553742.09 4174823.70 UP
440 0 553747.42 4174831.22 UP
445 0 553752.76 4174838.74 UP
450 0 553758.10 4174846.26 UP
455 0 553742.60 4174857.18 UP
460 0 553727.11 4174868.10 UP
465 0 553711.61 4174879.02 UP
470 0 553696.12 4174889.94 UP
475 0 553680.62 4174900.86 UP
480 0 553665.13 4174911.78 UP
485 0 553649.63 4174922.70 UP
490 0 553634.14 4174933.63 UP
495 0 553618.64 4174944.55 UP
500 0 553603.15 4174955.47 UP
505 0 553587.73 4174966.35 UP
510 0 553572.44 4174977.17 UP
515 0 553557.14 4174987.99 UP
520 0 553541.84 4174998.81 UP
525 0 553526.54 4175009.64 UP
530 0 553511.25 4175020.46 UP
535 0 553495.95 4175031.28 UP
540 0 553480.65 4175042.10 UP
545 0 553465.35 4175052.92 UP
550 0 553450.05 4175063.74 UP
555 0 553434.76 4175074.56 UP
560 0 553276.32 4175185.97 UP
565 0 553274.80 4175186.46 UP
570 0 553273.28 4175186.94 UP
575 0 553271.76 4175187.43 UP
580 0 553270.24 4175187.92 UP
585 0 553268.72 4175188.41 UP
590 0 553267.20 4175188.90 UP
595 0 553265.68 4175189.39 UP
600 0 553264.17 4175189.88 UP
605 0 553262.65 4175190.37 UP
610 0 553247.05 4175150.08 UP
615 0 553175.14 4174946.66 UP
620 0 553170.79 4174949.52 UP
625 0 553166.44 4174952.38 UP
630 0 553162.09 4174955.24 UP
635 0 553157.74 4174958.10 UP
640 0 553153.39 4174960.96 UP
645 0 553149.05 4174963.81 UP
650 0 553144.70 4174966.67 UP
655 0 553140.35 4174969.53 UP
660 0 553136.00 4174972.39 UP
665 0 553131.65 4174975.25 UP
670 0 553127.30 4174978.11 UP
675 0 553122.95 4174980.97 UP
680 0 553118.61 4174983.82 UP
685 0 553110.78 4174989.18 UP
690 0 553089.01 4175004.51 UP
695 0 553067.25 4175019.85 UP
700 0 553045.49 4175035.18 UP
705 0 553031.80 4175044.57 UP
710 0 553030.21 4175045.03 UP
715 0 553028.63 4175045.49 UP
720 0 553027.04 4175045.96 UP
725 0 553025.46 4175046.42 UP
730 0 553023.87 4175046.88 UP
735 0 552959.44 4175065.40 UP
740 0 552948.48 4175068.55 UP
745 0 552937.51 4175071.70 UP
750 0 552926.55 4175074.86 UP
755 0 552915.58 4175078.01 UP
760 0 552904.62 4175081.16 UP
765 0 552893.65 4175084.32 UP
770 0 552882.68 4175087.47 UP
775 0 552802.60 4175320.89 UP
780 0 552796.16 4175322.76 UP
785 0 552789.73 4175324.64 UP
790 0 552783.29 4175326.51 UP
795 0 552776.85 4175328.39 UP
800 0 552770.42 4175330.26 UP
805 0 552763.98 4175332.14 UP
810 0 552757.54 4175334.01 UP
815 0 552751.11 4175335.89 UP
820 0 552744.67 4175337.76 UP
825 0 552738.23 4175339.64 UP
830 0 552731.80 4175341.52 UP
835 0 552725.36 4175343.39 UP
840 0 552718.92 4175345.27 UP
845 0 552712.49 4175347.14 UP
850 0 552706.05 4175349.02 UP
855 0 552699.62 4175350.89 UP
860 0 552693.18 4175352.77 UP
865 0 552709.88 4175302.53 UP
870 0 552726.58 4175252.29 UP
875 0 552734.72 4175227.91 UP
880 0 552737.15 4175220.78 UP
885 0 552739.58 4175213.65 UP
890 0 552742.01 4175206.51 UP
895 0 552744.45 4175199.38 UP
900 0 552746.88 4175192.24 UP
905 0 552749.31 4175185.11 UP
910 0 552754.10 4175171.19 UP
915 0 552762.44 4175147.12 UP
920 0 552770.77 4175123.04 UP
925 0 552777.66 4175103.13 UP
930 0 552778.77 4175099.90 UP
935 0 552779.89 4175096.68 UP
940 0 552781.00 4175093.45 UP
945 0 552782.11 4175090.23 UP
950 0 552762.57 4175082.20 UP
955 0 552729.25 4175070.98 UP
960 0 552695.93 4175059.76 UP
965 0 552662.80 4175048.52 UP
970 0 552629.67 4175037.27 UP
975 0 552596.54 4175026.03 UP
980 0 552563.41 4175014.79 UP
985 0 552530.28 4175003.55 UP
990 0 552505.21 4174995.34 UP
995 0 552482.15 4174987.89 UP
1000 0 552459.10 4174980.45 UP
1005 0 552436.05 4174973.00 UP
1010 0 552405.83 4174962.60 UP
1015 0 552375.60 4174952.20 UP
1020 0 552345.38 4174941.80 UP
1025 0 552327.75 4174935.94 UP
1030 0 552310.13 4174930.07 UP
1035 0 552292.50 4174924.20 UP
1040 0 552274.87 4174918.33 UP
1045 0 552175.11 4174885.36 UP
1050 0 552159.99 4174880.16 UP
1055 0 552144.87 4174874.95 UP
1060 0 552129.76 4174869.75 UP
1065 0 552114.64 4174864.55 UP
1070 0 552099.52 4174859.34 UP
1075 0 552000.79 4174826.90 UP
1080 0 551973.72 4174817.47 UP
1085 0 551946.65 4174808.04 UP
1090 0 551919.58 4174798.61 UP
1095 0 551901.28 4174792.30 UP
1100 0 551885.16 4174786.76 UP
1105 0 551869.04 4174781.22 UP
1110 0 551852.93 4174775.68 UP
1115 0 551724.20 4174733.66 UP
1120 0 551627.74 4174702.31 UP
1125 0 551621.88 4174700.66 UP
1130 0 551616.03 4174699.01 UP
1135 0 551610.18 4174697.36 UP
1140 0 551604.33 4174695.71 UP
1145 0 551598.48 4174694.06 UP
1150 0 551592.62 4174692.41 UP
1155 0 551586.77 4174690.76 UP
1160 0 551580.92 4174689.11 UP
1165 0 551545.35 4174693.56 UP
1170 0 551296.84 4174758.95 UP
1175 0 551242.59 4174773.05 UP
1180 0 551236.92 4174774.32 UP
1185 0 551231.24 4174775.59 UP
1190 0 551225.57 4174776.86 UP
1195 0 551219.89 4174778.12 UP
1200 0 551214.22 4174779.39 UP
1205 0 551208.54 4174780.66 UP
1210 0 551202.87 4174781.93 UP
1215 0 551197.19 4174783.20 UP
1220 0 551191.52 4174784.47 UP
1225 0 551185.84 4174785.74 UP
1230 0 551174.71 4174787.75 UP
1235 0 551154.43 4174790.46 UP
1240 0 551116.46 4174790.31 UP
1245 0 551081.86 4174785.17 UP
1250 0 551053.82 4174776.27 UP
1255 0 551028.80 4174765.06 UP
1260 0 551006.47 4174751.49 UP
1265 0 550953.32 4174712.05 UP
1270 0 550890.77 4174665.51 UP
1275 0 550871.51 4174649.51 UP
1280 0 550852.26 4174633.51 UP
1285 0 550833.00 4174617.51 UP
1290 0 550813.75 4174601.51 UP
1295 0 550801.83 4174592.71 UP
1300 0 550794.80 4174588.71 UP
1305 0 550787.78 4174584.71 UP
1310 0 550768.33 4174578.60 UP
1315 0 550741.56 4174574.96 UP
1320 0 550715.57 4174581.52 UP
1325 0 550681.82 4174601.34 UP
1330 0 550660.52 4174625.95 UP
1335 0 550640.07 4174669.43 UP
1340 0 550629.22 4174686.70 UP
1345 0 550615.95 4174702.60 UP
1350 0 550590.01 4174721.55 UP
1355 0 550546.63 4174748.70 UP
1360 0 550531.22 4174757.65 UP
1365 0 550515.82 4174766.60 UP
1370 0 550500.42 4174775.55 UP
1375 0 550485.02 4174784.50 UP
1380 0 550403.00 4174833.15 UP
1385 0 550389.69 4174840.96 UP
1390 0 550376.37 4174848.76 UP
1395 0 550363.05 4174856.57 UP
1400 0 550349.74 4174864.38 UP
1405 0 550333.71 4174873.87 UP
1410 0 550306.83 4174890.05 UP
1415 0 550279.95 4174906.23 UP
1420 0 550191.92 4174958.11 UP
1425 0 550178.48 4174966.22 UP
1430 0 550165.04 4174974.33 UP
1435 0 550151.60 4174982.45 UP
1440 0 550138.16 4174990.56 UP
1445 0 550056.48 4175038.22 UP
1450 0 550042.83 4175046.33 UP
1455 0 550029.19 4175054.44 UP
1460 0 550015.55 4175062.56 UP
1465 0 550001.91 4175070.67 UP
1470 0 549988.27 4175078.78 UP
1475 0 549906.51 4175127.33 UP
1480 0 549892.86 4175135.44 UP
1485 0 549879.22 4175143.55 UP
1490 0 549865.58 4175151.66 UP
1495 0 549851.94 4175159.78 UP
1500 0 549770.30 4175207.37 UP
1505 0 549757.24 4175215.10 UP
1510 0 549744.17 4175222.83 UP
1515 0 549731.11 4175230.56 UP
1520 0 549718.05 4175238.29 UP
1525 0 549704.98 4175246.02 UP
1530 0 549648.57 4175315.87 UP
1535 0 549627.73 4175313.20 UP
1540 0 549606.89 4175310.52 UP
1545 0 549586.05 4175307.85 UP
1550 0 549565.21 4175305.17 UP
1555 0 549544.36 4175302.50 UP
1560 0 549523.52 4175299.82 UP
1565 0 549502.68 4175297.15 UP
1570 0 549481.84 4175294.47 UP
1575 0 549435.62 4175288.54 UP
1580 0 549351.34 4175277.72 UP
1585 0 549267.05 4175266.91 UP
1590 0 549182.77 4175256.09 UP
1595 0 549098.49 4175245.27 UP
1600 0 549014.20 4175234.45 UP
1605 0 548929.92 4175223.64 UP
1610 0 548927.92 4175223.63 UP
1615 0 548925.91 4175223.63 UP
1620 0 548923.91 4175223.63 UP
1625 0 548921.90 4175223.63 UP
1630 0 548919.89 4175223.63 UP
1635 0 548917.89 4175223.63 UP
1640 0 548915.88 4175223.62 UP
1645 0 548913.88 4175223.62 UP
1650 0 548911.87 4175223.62 UP
1655 0 548909.87 4175223.62 UP
1660 0 548907.86 4175223.62 UP
1665 0 548905.86 4175223.61 UP
1670 0 548903.85 4175223.61 UP
1675 0 548901.85 4175223.61 UP
1680 0 548899.84 4175223.61 UP
1685 0 548879.88 4175223.59 UP
1690 0 548859.92 4175223.57 UP
1695 0 548839.96 4175223.55 UP
1700 0 548819.99 4175223.54 UP
1705 0 548800.03 4175223.52 UP
1710 0 548780.07 4175223.50 UP
1715 0 548760.11 4175223.48 UP
1720 0 548740.15 4175223.46 UP
1725 0 548707.02 4175223.43 UP
1730 0 548673.88 4175223.40 UP
1735 0 548640.75 4175223.37 UP
1740 0 548607.62 4175223.34 UP
1745 0 548574.49 4175223.31 UP
1750 0 548541.36 4175223.28 UP
1755 0 548508.23 4175223.25 UP
1760 0 548475.09 4175223.22 UP
1765 0 548441.96 4175223.19 UP
1770 0 548408.83 4175223.16 UP
1775 0 548375.70 4175223.13 UP
1780 0 548342.57 4175223.10 UP
1785 0 548326.51 4175223.22 UP
1790 0 548321.84 4175223.43 UP
1795 0 548317.17 4175223.63 UP
1800 0 548312.49 4175223.84 UP
1805 0 548307.82 4175224.05 UP
1810 0 548303.15 4175224.26 UP
1815 0 548298.48 4175224.47 UP
1820 0 548293.81 4175224.68 UP
1825 0 548282.84 4175227.37 UP
1830 0 548267.69 4175231.72 UP
1835 0 548225.37 4175242.50 UP
1840 0 548191.34 4175251.13 UP
1845 0 548179.93 4175254.11 UP
1850 0 548168.53 4175257.09 UP
1855 0 548157.12 4175260.06 UP
1860 0 548145.71 4175263.04 UP
1865 0 548134.31 4175266.02 UP
1870 0 548122.90 4175269.00 UP
1875 0 548111.50 4175271.97 UP
1880 0 548013.12 4175297.50 UP
1885 0 547993.78 4175302.55 UP
1890 0 547974.44 4175307.60 UP
1895 0 547955.10 4175312.65 UP
1900 0 547935.76 4175317.70 UP
1905 0 547928.04 4175317.04 UP
1910 0 547928.06 4175312.56 UP
1915 0 547928.09 4175308.09 UP
1920 0 547928.12 4175303.62 UP
1925 0 547928.14 4175299.14 UP
1930 0 547928.17 4175294.67 UP
1935 0 547928.23 4175283.73 UP
1940 0 547928.35 4175263.10 UP
1945 0 547928.47 4175242.47 UP
1950 0 547928.59 4175221.84 UP
1955 0 547928.71 4175201.21 UP
1960 0 547928.83 4175180.59 UP
1965 0 547928.95 4175159.96 UP
1970 0 547929.07 4175139.33 UP
1975 0 547929.19 4175118.70 UP
1980 0 547929.31 4175098.07 UP
1985 0 547929.51 4175078.11 UP
1990 0 547929.73 4175058.31 UP
1995 0 547929.95 4175038.51 UP
2000 0 547930.17 4175018.72 UP
2005 0 547930.38 4174998.92 UP
2010 0 547930.60 4174979.12 UP
2015 0 547930.82 4174959.33 UP
2020 0 547931.04 4174939.53 UP
2025 0 547931.26 4174919.74 UP
2030 0 547931.48 4174899.94 UP
2035 0 547919.32 4174891.95 UP
2040 0 547898.91 4174891.83 UP
2045 0 547878.50 4174891.71 UP
2050 0 547858.09 4174891.60 UP
2055 0 547796.81 4174891.24 UP
2060 0 547743.51 4174890.84 UP
2065 0 547733.07 4174890.66 UP
2070 0 547722.63 4174890.49 UP
2075 0 547712.19 4174890.31 UP
2080 0 547701.74 4174890.13 UP
2085 0 547691.30 4174889.96 UP
2090 0 547680.86 4174889.78 UP
2095 0 547670.42 4174889.60 UP
2100 0 547617.16 4174889.20 UP
2105 0 547563.90 4174888.90 UP
2110 0 547553.45 4174888.84 UP
2115 0 547542.99 4174888.78 UP
2120 0 547532.54 4174888.72 UP
2125 0 547522.09 4174888.66 UP
2130 0 547511.63 4174888.60 UP
2135 0 547501.18 4174888.54 UP
2140 0 547490.73 4174888.48 UP
2145 0 547437.47 4174887.67 UP
2150 0 547385.97 4174886.69 UP
2155 0 547377.71 4174886.42 UP
2160 0 547369.46 4174886.14 UP
2165 0 547361.21 4174885.87 UP
2170 0 547347.51 4174885.43 UP
2175 0 547325.63 4174884.75 UP
2180 0 547310.32 4174882.47 UP
2185 0 547299.39 4174879.10 UP
2190 0 547288.47 4174875.74 UP
2195 0 547277.55 4174872.38 UP
2200 0 547227.64 4174855.83 UP
2205 0 547206.47 4174851.72 UP
2210 0 547189.85 4174849.92 UP
2215 0 547176.27 4174849.67 UP
2220 0 547162.68 4174849.42 UP
2225 0 547149.10 4174849.17 UP
2230 0 547135.52 4174848.92 UP
2235 0 547121.93 4174848.67 UP
2240 0 547031.67 4174848.02 UP
2245 0 547011.97 4174847.66 UP
2250 0 546992.28 4174847.30 UP
2255 0 546972.58 4174846.94 UP
2260 0 546956.57 4174846.64 UP
2265 0 546946.09 4174846.45 UP
2270 0 546935.61 4174846.26 UP
2275 0 546925.12 4174846.07 UP
2280 0 546914.64 4174845.88 UP
2285 0 546904.16 4174845.69 UP
2290 0 546893.68 4174845.50 UP
2295 0 546883.19 4174845.31 UP
2300 0 546798.11 4174844.75 UP
2305 0 546787.62 4174844.56 UP
2310 0 546777.12 4174844.36 UP
2315 0 546766.63 4174844.17 UP
2320 0 546756.14 4174843.98 UP
2325 0 546745.64 4174843.79 UP
2330 0 546735.15 4174843.60 UP
2335 0 546724.65 4174843.41 UP
2340 0 546639.66 4174841.90 UP
2345 0 546629.17 4174841.82 UP
2350 0 546618.67 4174841.75 UP
2355 0 546608.18 4174841.68 UP
2360 0 546597.68 4174841.60 UP
2365 0 546587.19 4174841.53 UP
2370 0 546576.69 4174841.46 UP
2375 0 546566.20 4174841.38 UP
2380 0 546499.19 4174868.62 UP
2385 0 546500.88 4174932.69 UP
2390 0 546502.57 4174996.76 UP
2395 0 546504.25 4175060.82 UP
2400 0 546501.69 4175060.27 UP
2405 0 546499.13 4175059.71 UP
2410 0 546496.57 4175059.15 UP
2415 0 546494.01 4175058.59 UP
2420 0 546491.45 4175058.03 UP
2425 0 546488.89 4175057.47 UP
2430 0 546486.33 4175056.91 UP
2435 0 546483.77 4175056.35 UP
2440 0 546481.21 4175055.79 UP
2445 0 546478.65 4175055.23 UP
2450 0 546476.09 4175054.67 UP
2455 0 546445.84 4175046.92 UP
2460 0 546415.60 4175039.17 UP
2465 0 546385.35 4175031.42 UP
2470 0 546364.93 4175026.34 UP
2475 0 546344.50 4175021.26 UP
2480 0 546324.07 4175016.18 UP
2485 0 546305.90 4175011.84 UP
2490 0 546296.73 4175010.46 UP
2495 0 546287.56 4175009.07 UP
2500 0 546278.40 4175007.68 UP
2505 0 546269.23 4175006.29 UP
2510 0 546262.23 4175003.13 UP
2515 0 546255.76 4174999.53 UP
2520 0 546249.30 4174995.93 UP
2525 0 546253.25 4175119.89 UP
2530 0 546259.01 4175258.91 UP
2535 0 546264.77 4175397.93 UP
2540 0 546266.33 4175438.73 UP
2545 0 546266.82 4175454.96 UP
2550 0 546267.32 4175471.20 UP
2555 0 546267.82 4175487.44 UP
2560 0 546268.32 4175503.68 UP
2565 0 546268.82 4175519.91 UP
2570 0 546269.32 4175536.15 UP
2575 0 546269.82 4175552.39 UP
2580 0 546270.32 4175568.63 UP
2585 0 546270.81 4175584.86 UP
2590 0 546271.31 4175601.10 UP
2595 0 546271.81 4175617.34 UP
2600 0 546272.31 4175633.58 UP
2605 0 546272.13 4175646.59 UP
2610 0 546269.25 4175646.69 UP
2615 0 546266.36 4175646.79 UP
2620 0 546263.47 4175646.90 UP
2625 0 546260.59 4175647.00 UP
2630 0 546257.70 4175647.10 UP
2635 0 546254.82 4175647.20 UP
2640 0 546251.93 4175647.31 UP
2645 0 546249.05 4175647.41 UP
2650 0 546231.64 4175647.98 UP
2655 0 546210.61 4175648.66 UP
2660 0 546189.58 4175649.34 UP
2665 0 546017.27 4175654.90 UP
2670 0 546013.27 4175655.74 UP
2675 0 546009.27 4175656.58 UP
2680 0 546005.27 4175657.42 UP
2685 0 546001.27 4175658.26 UP
2690 0 545997.27 4175659.10 UP
2695 0 545991.03 4175661.12 UP
2700 0 545973.47 4175671.49 UP
2705 0 545954.99 4175695.44 UP
2710 0 545948.30 4175712.99 UP
2715 0 545946.32 4175737.19 UP
2720 0 545941.56 4175765.50 UP
2725 0 545934.02 4175793.39 UP
2730 0 545915.15 4175810.53 UP
2735 0 545881.23 4175824.83 UP
2740 0 545857.80 4175825.81 UP
2745 0 545837.65 4175822.63 UP
2750 0 545818.20 4175814.12 UP
2755 0 545728.82 4175726.79 UP
2760 0 545687.64 4175686.16 UP
2765 0 545680.89 4175681.86 UP
2770 0 545674.14 4175677.55 UP
2775 0 545667.38 4175673.25 UP
2780 0 545660.63 4175668.95 UP
2785 0 545653.88 4175664.64 UP
2790 0 545627.23 4175662.94 UP
2795 0 545600.58 4175661.23 UP
2800 0 545573.93 4175659.52 UP
2805 0 545547.29 4175657.82 UP
2810 0 545520.64 4175656.11 UP
2815 0 545493.99 4175654.40 UP
2820 0 545479.55 4175668.56 UP
2825 0 545473.24 4175693.31 UP
2830 0 545419.02 4175777.60 UP
2835 0 545352.82 4175876.79 UP
2840 0 545351.04 4175878.87 UP
2845 0 545349.25 4175880.96 UP
2850 0 545347.47 4175883.04 UP
2855 0 545345.68 4175885.13 UP
2860 0 545343.90 4175887.21 UP
2865 0 545342.11 4175889.29 UP
2870 0 545340.33 4175891.38 UP
2875 0 545338.54 4175893.46 UP
2880 0 545320.85 4175906.29 UP
2885 0 545295.56 4175918.50 UP
2890 0 545274.67 4175926.39 UP
2895 0 545253.78 4175934.29 UP
2900 0 545043.55 4176016.79 UP
2905 0 545039.60 4176017.62 UP
2910 0 545035.65 4176018.45 UP
2915 0 545031.70 4176019.28 UP
2920 0 545027.75 4176020.11 UP
2925 0 545023.81 4176020.94 UP
2930 0 545019.86 4176021.77 UP
2935 0 545015.91 4176022.60 UP
2940 0 545007.38 4176022.57 UP
2945 0 544980.52 4176019.10 UP
2950 0 544952.83 4176007.39 UP
2955 0 544933.50 4175993.62 UP
2960 0 544913.16 4175970.84 UP
2965 0 544888.86 4175937.03 UP
2970 0 544867.33 4175910.17 UP
2975 0 544847.09 4175886.54 UP
2980 0 544831.99 4175875.78 UP
2985 0 544816.90 4175865.03 UP
2990 0 544799.10 4175858.01 UP
2995 0 544779.49 4175853.46 UP
3000 0 544756.05 4175855.11 UP
3005 0 544729.06 4175865.67 UP
3010 0 544695.91 4175885.61 UP
3015 0 544656.11 4175912.26 UP
3020 0 544648.30 4175920.97 UP
3025 0 544640.49 4175929.68 UP
3030 0 544632.38 4175943.46 UP
3035 0 544625.33 4175964.09 UP
3040 0 544624.31 4175981.60 UP
3045 0 544623.29 4175999.11 UP
3050 0 544622.27 4176016.62 UP
3055 0 544620.64 4176044.78 UP
3060 0 544619.00 4176072.93 UP
3065 0 544617.36 4176101.08 UP
3070 0 544615.73 4176129.24 UP
3075 0 544614.09 4176157.39 UP
3080 0 544612.45 4176185.55 UP
3085 0 544615.81 4176243.68 UP
3090 0 544613.00 4176294.36 UP
3095 0 544610.80 4176332.95 UP
3100 0 544609.51 4176353.41 UP
3105 0 544608.22 4176373.88 UP
3110 0 544606.93 4176394.34 UP
3115 0 544605.64 4176414.81 UP
3120 0 544604.36 4176435.28 UP
3125 0 544603.07 4176455.74 UP
3130 0 544601.78 4176476.21 UP
3135 0 544600.49 4176496.67 UP
3140 0 544599.20 4176517.14 UP
3145 0 544597.91 4176537.60 UP
3150 0 544595.31 4176563.05 UP
3155 0 544592.71 4176588.49 UP
3160 0 544590.10 4176613.93 UP
3165 0 544587.50 4176639.37 UP
3170 0 544584.89 4176664.81 UP
3175 0 544582.29 4176690.25 UP
3180 0 544579.68 4176715.69 UP
3185 0 544578.10 4176742.09 UP
3190 0 544576.53 4176768.48 UP
3195 0 544574.95 4176794.87 UP
3200 0 544573.37 4176821.26 UP
3205 0 544571.79 4176847.65 UP
3210 0 544570.22 4176874.05 UP
3215 0 544568.64 4176900.44 UP
3220 0 544567.06 4176926.85 UP
3225 0 544565.49 4176953.36 UP
3230 0 544563.91 4176979.87 UP
3235 0 544562.33 4177006.37 UP
3240 0 544560.75 4177032.88 UP
3245 0 544559.17 4177059.38 UP
3250 0 544557.60 4177085.89 UP
3255 0 544556.02 4177112.40 UP
3260 0 544554.39 4177138.91 UP
3265 0 544552.67 4177165.43 UP
3270 0 544550.96 4177191.95 UP
3275 0 544549.25 4177218.47 UP
3280 0 544547.53 4177244.99 UP
3285 0 544545.82 4177271.51 UP
3290 0 544544.11 4177298.03 UP
3295 0 544542.39 4177324.54 UP
3300 0 544540.76 4177351.14 UP
3305 0 544539.18 4177377.79 UP
3310 0 544537.60 4177404.44 UP
3315 0 544536.02 4177431.09 UP
3320 0 544534.45 4177457.73 UP
3325 0 544532.87 4177484.38 UP
3330 0 544531.29 4177511.03 UP
3335 0 544529.71 4177537.68 UP
3340 0 544528.13 4177564.12 UP
3345 0 544526.56 4177590.52 UP
3350 0 544524.98 4177616.91 UP
3355 0 544523.40 4177643.30 UP
3360 0 544521.83 4177669.69 UP
3365 0 544520.25 4177696.08 UP
3370 0 544518.67 4177722.48 UP
3375 0 544517.09 4177748.87 UP
3380 0 544503.62 4177957.43 UP
3385 0 544503.44 4177960.47 UP
3390 0 544503.26 4177963.50 UP
3395 0 544503.08 4177966.54 UP
3400 0 544502.90 4177969.57 UP
3405 0 544502.72 4177972.61 UP
3410 0 544502.54 4177975.65 UP
3415 0 544502.36 4177978.68 UP
3420 0 544502.18 4177981.72 UP
3425 0 544501.07 4178000.31 UP
3430 0 544499.35 4178029.26 UP
3435 0 544497.63 4178058.22 UP
3440 0 544495.91 4178087.18 UP
3445 0 544494.18 4178116.14 UP
3450 0 544492.46 4178145.09 UP
3455 0 544479.12 4178369.33 UP
3460 0 544478.94 4178372.36 UP
3465 0 544478.76 4178375.40 UP
3470 0 544478.58 4178378.43 UP
3475 0 544478.40 4178381.47 UP
3480 0 544478.22 4178384.51 UP
3485 0 544478.04 4178387.54 UP
3490 0 544477.86 4178390.58 UP
3495 0 544477.68 4178393.61 UP
3500 0 544477.50 4178396.65 UP
3505 0 544476.16 4178419.09 UP
3510 0 544474.83 4178441.53 UP
3515 0 544473.49 4178463.98 UP
3520 0 544472.16 4178486.42 UP
3525 0 544470.82 4178508.86 UP
3530 0 544469.49 4178531.30 UP
3535 0 544468.15 4178553.74 UP
3540 0 544466.82 4178576.19 UP
3545 0 544465.11 4178602.71 UP
3550 0 544463.39 4178629.23 UP
3555 0 544461.68 4178655.75 UP
3560 0 544459.97 4178682.26 UP
3565 0 544458.25 4178708.78 UP
3570 0 544456.54 4178735.30 UP
3575 0 544454.83 4178761.82 UP
3580 0 544453.14 4178788.34 UP
3585 0 544451.57 4178814.85 UP
3590 0 544449.99 4178841.35 UP
3595 0 544448.41 4178867.86 UP
3600 0 544446.83 4178894.36 UP
3605 0 544445.26 4178920.87 UP
3610 0 544443.68 4178947.38 UP
3615 0 544442.10 4178973.88 UP
3620 0 544440.52 4179000.40 UP
3625 0 544438.95 4179026.92 UP
3630 0 544437.37 4179053.44 UP
3635 0 544435.79 4179079.96 UP
3640 0 544434.22 4179106.48 UP
3645 0 544432.64 4179133.00 UP
3650 0 544431.06 4179159.52 UP
3655 0 544429.48 4179186.04 UP
3660 0 544427.83 4179212.63 UP
3665 0 544426.11 4179239.28 UP
3670 0 544424.40 4179265.93 UP
3675 0 544422.68 4179292.58 UP
3680 0 544420.97 4179319.23 UP
3685 0 544419.26 4179345.87 UP
3690 0 544417.54 4179372.52 UP
3695 0 544415.83 4179399.17 UP
3700 0 544414.23 4179425.61 UP
3705 0 544412.65 4179452.00 UP
3710 0 544411.07 4179478.40 UP
3715 0 544409.50 4179504.79 UP
3720 0 544407.92 4179531.18 UP
3725 0 544406.35 4179557.57 UP
3730 0 544404.77 4179583.97 UP
3735 0 544403.19 4179610.36 UP
3740 0 544446.13 4179683.82 UP
3745 0 544445.07 4179702.40 UP
3750 0 544444.00 4179720.99 UP
3755 0 544442.94 4179739.58 UP
3760 0 544441.88 4179758.16 UP
3765 0 544440.81 4179776.75 UP
3770 0 544439.75 4179795.33 UP
3775 0 544438.68 4179813.92 UP
3780 0 544542.65 4179828.47 UP
3785 0 544569.00 4179829.99 UP
3790 0 544595.34 4179831.52 UP
3795 0 544621.68 4179833.05 UP
3800 0 544649.03 4179834.65 UP
3805 0 544676.64 4179836.27 UP
3810 0 544704.25 4179837.89 UP
3815 0 544729.06 4179839.43 UP
3820 0 544749.67 4179840.84 UP
3825 0 544770.29 4179842.26 UP
3830 0 544790.90 4179843.67 UP
3835 0 544811.52 4179845.09 UP
3840 0 544846.93 4179847.20 UP
3845 0 544886.04 4179849.50 UP
3850 0 544920.66 4179851.64 UP
3855 0 544948.55 4179853.55 UP
3860 0 544976.44 4179855.47 UP
3865 0 545004.33 4179857.38 UP
3870 0 545024.95 4179858.36 UP
3875 0 545045.56 4179859.34 UP
3880 0 545066.18 4179860.32 UP
3885 0 545086.80 4179861.30 UP
3890 0 545114.81 4179862.98 UP
3895 0 545153.92 4179865.69 UP
3900 0 545193.03 4179868.40 UP
3905 0 545220.63 4179870.02 UP
3910 0 545248.24 4179871.64 UP
3915 0 545275.85 4179873.26 UP
3920 0 545299.26 4179874.76 UP
3925 0 545319.87 4179876.17 UP
3930 0 545340.49 4179877.59 UP
3935 0 545361.10 4179879.00 UP
3940 0 545381.72 4179880.42 UP
3945 0 545420.83 4179882.30 UP
3950 0 545459.94 4179884.18 UP
3955 0 545487.95 4179885.78 UP
3960 0 545508.57 4179887.20 UP
3965 0 545529.18 4179888.61 UP
3970 0 545549.80 4179890.03 UP
3975 0 545570.41 4179891.45 UP
3980 0 545587.34 4179892.59 UP
3985 0 545604.28 4179893.74 UP
3990 0 545621.21 4179894.88 UP
3995 0 545638.14 4179896.02 UP
4000 0 545655.08 4179897.17 UP
4005 0 545761.89 4179903.53 UP
4010 0 545775.84 4179904.34 UP
4015 0 545789.78 4179905.15 UP
4020 0 545803.73 4179905.96 UP
4025 0 545817.67 4179906.78 UP
4030 0 545831.62 4179907.59 UP
4035 0 545845.56 4179908.40 UP
4040 0 545952.29 4179914.73 UP
4045 0 545974.74 4179916.35 UP
4050 0 545997.19 4179917.97 UP
4055 0 546019.64 4179919.60 UP
4060 0 546037.34 4179924.10 UP
4065 0 546036.03 4179940.13 UP
4070 0 546034.73 4179956.16 UP
4075 0 546033.42 4179972.18 UP
4080 0 546032.12 4179988.21 UP
4085 0 546031.06 4179996.08 UP
4090 0 546030.00 4180003.96 UP
4095 0 546024.18 4180026.04 UP
4100 0 546001.82 4180073.64 UP
4105 0 545986.01 4180101.42 UP
4110 0 545980.91 4180110.76 UP
4115 0 545970.71 4180133.33 UP
4120 0 545958.98 4180167.32 UP
4125 0 545952.31 4180199.85 UP
4130 0 545947.85 4180236.16 UP
4135 0 545945.85 4180259.04 UP
4140 0 545944.02 4180281.82 UP
4145 0 545942.45 4180304.48 UP
4150 0 545935.11 4180342.05 UP
4155 0 545929.27 4180361.12 UP
4160 0 545921.37 4180382.96 UP
4165 0 545904.16 4180423.25 UP
4170 0 545888.11 4180459.47 UP
4175 0 545876.33 4180485.59 UP
4180 0 545865.50 4180508.78 UP
4185 0 545855.30 4180530.03 UP
4190 0 545847.47 4180547.09 UP
4195 0 545841.23 4180561.35 UP
4200 0 545831.84 4180570.46 UP
4205 0 545809.05 4180590.27 UP
4210 0 545786.21 4180604.14 UP
4215 0 545763.74 4180614.26 UP
4220 0 545740.68 4180620.02 UP
4225 0 545656.44 4180630.50 UP
4230 0 545649.06 4180630.84 UP
4235 0 545641.67 4180631.19 UP
4240 0 545625.83 4180632.75 UP
4245 0 545580.26 4180637.88 UP
4250 0 545570.89 4180637.83 UP
4255 0 545482.11 4180635.59 UP
4260 0 545479.27 4180636.20 UP
4265 0 545476.43 4180636.80 UP
4270 0 545466.57 4180640.19 UP
4275 0 545440.17 4180660.40 UP
4280 0 545429.45 4180680.54 UP
4285 0 545426.31 4180706.26 UP
4290 0 545413.44 4180921.51 UP
4295 0 545412.54 4180935.48 UP
4300 0 545411.64 4180949.46 UP
4305 0 545410.73 4180963.44 UP
4310 0 545409.83 4180977.41 UP
4315 0 545408.92 4180991.39 UP
4320 0 545408.02 4181005.36 UP
4325 0 545407.11 4181019.34 UP
4330 0 545406.21 4181033.32 UP
4335 0 545405.31 4181047.29 UP
4340 0 545404.40 4181061.27 UP
4345 0 545403.50 4181075.25 UP
4350 0 545402.59 4181089.22 UP
4355 0 545401.69 4181103.20 UP
4360 0 545400.78 4181117.18 UP
4365 0 545387.92 4181332.61 UP
4370 0 545387.02 4181347.05 UP
4375 0 545386.12 4181361.49 UP
4380 0 545385.22 4181375.93 UP
4385 0 545384.32 4181390.37 UP
4390 0 545383.42 4181404.81 UP
4395 0 545382.52 4181419.25 UP
4400 0 545381.61 4181433.70 UP
4405 0 545380.71 4181448.14 UP
4410 0 545379.81 4181462.58 UP
4415 0 545378.91 4181477.02 UP
4420 0 545378.01 4181491.46 UP
4425 0 545377.11 4181505.90 UP
4430 0 545376.21 4181520.34 UP
4435 0 545375.31 4181534.79 UP
4440 0 545385.95 4181557.49 UP
4445 0 545373.90 4181742.30 UP
4450 0 545371.85 4181744.32 UP
4455 0 545369.80 4181746.34 UP
4460 0 545367.76 4181748.36 UP
4465 0 545365.71 4181750.37 UP
4470 0 545363.66 4181752.39 UP
4475 0 545361.61 4181754.41 UP
4480 0 545371.56 4181772.21 UP
4485 0 545368.26 4181797.80 UP
4490 0 545364.97 4181823.39 UP
4495 0 545361.68 4181848.98 UP
4500 0 545358.38 4181874.58 UP
4505 0 545355.09 4181900.17 UP
4510 0 545351.79 4181925.76 UP
4515 0 545348.50 4181951.35 UP
4520 0 545352.84 4182037.06 UP
4525 0 545343.19 4182161.68 UP
4530 0 545341.75 4182162.72 UP
4535 0 545340.31 4182163.76 UP
4540 0 545338.87 4182164.80 UP
4545 0 545337.43 4182165.84 UP
4550 0 545335.99 4182166.87 UP
4555 0 545334.55 4182167.91 UP
4560 0 545342.30 4182186.17 UP
4565 0 545339.32 4182212.44 UP
4570 0 545336.34 4182238.70 UP
4575 0 545333.37 4182264.97 UP
4580 0 545330.39 4182291.24 UP
4585 0 545327.41 4182317.50 UP
4590 0 545324.44 4182343.77 UP
4595 0 545321.46 4182370.04 UP
4600 0 545392.22 4182374.24 UP
4605 0 545442.85 4182383.98 UP
4610 0 545472.05 4182394.72 UP
4615 0 545501.25 4182405.46 UP
4620 0 545515.84 4182415.10 UP
4625 0 545526.77 4182424.46 UP
4630 0 545537.70 4182433.82 UP
4635 0 545549.06 4182445.28 UP
4640 0 545561.07 4182459.88 UP
4645 0 545573.08 4182474.48 UP
4650 0 545599.71 4182528.89 UP
4655 0 545624.07 4182595.36 UP
4660 0 545632.30 4182630.05 UP
4665 0 545640.52 4182664.73 UP
4670 0 545648.74 4182699.42 UP
4675 0 545653.15 4182716.56 UP
4680 0 545657.55 4182733.69 UP
4685 0 545661.96 4182750.83 UP
4690 0 545666.37 4182767.96 UP
4695 0 545670.78 4182785.09 UP
4700 0 545675.19 4182802.23 UP
4705 0 545679.59 4182819.36 UP
4710 0 545684.00 4182836.50 UP
4715 0 545688.41 4182853.63 UP
4720 0 545692.82 4182870.77 UP
4725 0 545697.22 4182887.90 UP
4730 0 545696.16 4182899.80 UP
4735 0 545690.97 4182896.86 UP
4740 0 545685.47 4182886.36 DOWN
